lum,temp,radius
0.0001088428737943,5050.64469616304,7.0969301209782705
0.0001275263706459,5967.543450190654,4.583995818362709
0.0002303562500117,6674.161523966186,4.151077515952629
0.0002686581377268,7216.76297425465,3.4917541443148004
0.0004724980276801,7795.1843950015245,3.472736275515576
0.0006131969697156,8402.695283320794,3.0773375682156487
